map                   	all	0.3388
iprec_at_recall_0.00  	all	0.7262
iprec_at_recall_0.10  	all	0.6954
iprec_at_recall_0.20  	all	0.5705
iprec_at_recall_0.30  	all	0.4667
iprec_at_recall_0.40  	all	0.3927
iprec_at_recall_0.50  	all	0.3452
iprec_at_recall_0.60  	all	0.2743
iprec_at_recall_0.70  	all	0.2165
iprec_at_recall_0.80  	all	0.1338
iprec_at_recall_0.90  	all	0.0887
iprec_at_recall_1.00  	all	0.0794
P_5                   	all	0.3680
P_10                  	all	0.2591
recall_5              	all	0.2846
recall_10             	all	0.3808
