map                   	all	0.3380
iprec_at_recall_0.00  	all	0.7334
iprec_at_recall_0.10  	all	0.6934
iprec_at_recall_0.20  	all	0.5755
iprec_at_recall_0.30  	all	0.4795
iprec_at_recall_0.40  	all	0.3971
iprec_at_recall_0.50  	all	0.3457
iprec_at_recall_0.60  	all	0.2551
iprec_at_recall_0.70  	all	0.2033
iprec_at_recall_0.80  	all	0.1284
iprec_at_recall_0.90  	all	0.0942
iprec_at_recall_1.00  	all	0.0836
P_5                   	all	0.3796
P_10                  	all	0.2578
recall_5              	all	0.2892
recall_10             	all	0.3802
