map                   	all	0.3058
iprec_at_recall_0.00  	all	0.6927
iprec_at_recall_0.10  	all	0.6579
iprec_at_recall_0.20  	all	0.5309
iprec_at_recall_0.30  	all	0.4222
iprec_at_recall_0.40  	all	0.3609
iprec_at_recall_0.50  	all	0.3040
iprec_at_recall_0.60  	all	0.2297
iprec_at_recall_0.70  	all	0.1787
iprec_at_recall_0.80  	all	0.1074
iprec_at_recall_0.90  	all	0.0754
iprec_at_recall_1.00  	all	0.0692
P_5                   	all	0.3467
P_10                  	all	0.2418
recall_5              	all	0.2667
recall_10             	all	0.3539
