map                   	all	0.3068
iprec_at_recall_0.00  	all	0.6953
iprec_at_recall_0.10  	all	0.6595
iprec_at_recall_0.20  	all	0.5403
iprec_at_recall_0.30  	all	0.4335
iprec_at_recall_0.40  	all	0.3489
iprec_at_recall_0.50  	all	0.2981
iprec_at_recall_0.60  	all	0.2152
iprec_at_recall_0.70  	all	0.1737
iprec_at_recall_0.80  	all	0.1063
iprec_at_recall_0.90  	all	0.0782
iprec_at_recall_1.00  	all	0.0677
P_5                   	all	0.3547
P_10                  	all	0.2440
recall_5              	all	0.2699
recall_10             	all	0.3492
