map                   	all	0.3074
iprec_at_recall_0.00  	all	0.7007
iprec_at_recall_0.10  	all	0.6604
iprec_at_recall_0.20  	all	0.5358
iprec_at_recall_0.30  	all	0.4322
iprec_at_recall_0.40  	all	0.3523
iprec_at_recall_0.50  	all	0.3060
iprec_at_recall_0.60  	all	0.2150
iprec_at_recall_0.70  	all	0.1803
iprec_at_recall_0.80  	all	0.1097
iprec_at_recall_0.90  	all	0.0785
iprec_at_recall_1.00  	all	0.0679
P_5                   	all	0.3458
P_10                  	all	0.2396
recall_5              	all	0.2655
recall_10             	all	0.3505
